The Human Disease -- Week 3
…
#get network centralization score: statnet

# centralization(network.stat, g = NULL, degree, mode = "graph", diag = FALSE)

# summarizing the data after grouping the Gene type

network.nodes%>%
  group_by(name)%>%
  summarise_all(funs(mean, n()))

# A tibble: 3,823 x 3
   name    mean     n
   <chr>  <dbl> <int>
 1 A15        2     1
 2 A2M       20     1
 3 A4GALT    10     1
 4 AAA       44     1
 5 AAAS      44     1
 6 AAC2       0     1
 7 AACT      24     1
 8 AANAT      6     1
 9 AAS       46     1
10 AASS       4     1
# ... with 3,813 more rows
