Data Analytics and Computational Social Science: Blockmodels and Strctural Equivalence of International Trade for Battery and Electric Network
…
trade.nodes<-data.frame(name=V(net.ig)$name, degree=igraph::degree(net.ig))

In Degree and Out Degree

trade.nodes<-trade.nodes %>%
    mutate(indegree=igraph::degree(net.ig, mode="in", loops=FALSE),
           outdegree=igraph::degree(net.ig, mode="out", loops=FALSE))

Summarize by Group

trade.nodes%>%
  group_by(name)%>%
  summarise_all(funs(mean, n()))

# A tibble: 212 x 7
   name   degree_mean indegree_mean outdegree_mean degree_n indegree_n
   <chr>        <dbl>         <dbl>          <dbl>    <int>      <int>
 1 Afgha~          11            10              1        1          1
 2 Alban~          28             6             22        1          1
 3 Alger~          28            26              2        1          1
 4 Andor~           2             2              0        1          1
 5 Angola          41            35              6        1          1
 6 Angui~           3             0              3        1          1
 7 Antig~          16             5             11        1          1
 8 Areas~          75             6             69        1          1
 9 Argen~         396           226            166        1          1
10 Armen~          59            31             28        1          1
# ... with 202 more rows, and 1 more variable: outdegree_n <int>
…
